Session 5: Wrangling Data + Strings
…
One important difference from how these functions are created on the website, is that I want you to make the functions a bit more flexible, by allowing users to input both the data they want to use as well as the columns to use for the calculations (e.g. my_covariance <- function(data, x, y){}). There is an issue with specifying column names when running “homemade” functions and a trick (shown in the code chunk below) will be needed. For the function to successfully “send” the input for column names, this part will have to be included within double curly brackets ({{}}) when specified in the “body” of the function:

library(tidyverse)
cyto_small <- read_csv("Cytokine-Results_small.csv", 
                       skip = 1)

my_mean_center <- function(data, column){
  result <- data %>% 
    transmute(mean_center = {{column}} - mean({{column}}))
  return(result)
}

my_mean_center(cyto_small, BLC)

## # A tibble: 31 x 1
##    mean_center
##          <dbl>
##  1      -53.6 
##  2       -5.44
##  3      -24.4 
##  4      -39.6 
##  5      -46.6 
##  6      -43.2 
##  7      -41.6 
##  8      -35.6 
##  9      967.  
## 10      155.  
## # … with 21 more rows
…
